Screening Multiple Models for Predicting Volcanic Explosivity Index (VEI)
…
collect_metrics(final_fit)

## # A tibble: 2 x 4
##   .metric  .estimator .estimate .config             
##   <chr>    <chr>          <dbl> <chr>               
## 1 accuracy multiclass     0.637 Preprocessor1_Model1
## 2 roc_auc  hand_till      0.811 Preprocessor1_Model1

lf_pred <- collect_predictions(final_fit)

lf_pred

## # A tibble: 1,791 x 8
##    id     .pred_Exp_Sev .pred_Non_Gen .pred_Very_large  .row .pred_class vei_cat
##    <chr>          <dbl>         <dbl>            <dbl> <int> <fct>       <fct>  
##  1 train~         0.518         0.306          0.176       5 Exp_Sev     Non_Gen
##  2 train~         0.754         0.162          0.0840     10 Exp_Sev     Exp_Sev
##  3 train~         0.668         0.209          0.124      11 Exp_Sev     Non_Gen
##  4 train~         0.692         0.301          0.00703    29 Exp_Sev     Exp_Sev
##  5 train~         0.742         0.250          0.00749    31 Exp_Sev     Non_Gen
##  6 train~         0.481         0.514          0.00524    37 Non_Gen     Non_Gen
##  7 train~         0.696         0.221          0.0829     38 Exp_Sev     Exp_Sev
##  8 train~         0.389         0.606          0.00584    40 Non_Gen     Non_Gen
##  9 train~         0.326         0.221          0.453      50 Very_large  Non_Gen
## 10 train~         0.114         0.669          0.217      57 Non_Gen     Exp_Sev
## # ... with 1,781 more rows, and 1 more variable: .config <chr>
…
